[gd_scene load_steps=9 format=2]

[ext_resource path="res://Sprite/Ground/9.png" type="Texture" id=1]
[ext_resource path="res://Sprite/Ground/5.png" type="Texture" id=2]
[ext_resource path="res://Sprite/Ground/6.png" type="Texture" id=3]
[ext_resource path="res://Sprite/Ground/2.png" type="Texture" id=4]
[ext_resource path="res://Sprite/Ground/3.png" type="Texture" id=5]
[ext_resource path="res://Sprite/Ground/13.png" type="Texture" id=6]
[ext_resource path="res://Sprite/Ground/12.png" type="Texture" id=7]

[sub_resource type="TileSet" id=1]
0/name = "3.png 0"
0/texture = ExtResource( 5 )
0/tex_offset = Vector2( 0, 0 )
0/modulate = Color( 1, 1, 1, 1 )
0/region = Rect2( 32, 32, 64, 64 )
0/tile_mode = 1
0/autotile/bitmask_mode = 2
0/autotile/bitmask_flags = [  ]
0/autotile/icon_coordinate = Vector2( 0, 0 )
0/autotile/tile_size = Vector2( 32, 32 )
0/autotile/spacing = 0
0/autotile/occluder_map = [  ]
0/autotile/navpoly_map = [  ]
0/autotile/priority_map = [  ]
0/autotile/z_index_map = [  ]
0/occluder_offset = Vector2( 0, 0 )
0/navigation_offset = Vector2( 0, 0 )
0/shape_offset = Vector2( 0, 0 )
0/shape_transform = Transform2D( 1, 0, 0, 1, 0, 0 )
0/shape_one_way = false
0/shape_one_way_margin = 0.0
0/shapes = [  ]
0/z_index = 0
1/name = "3.png 1"
1/texture = ExtResource( 5 )
1/tex_offset = Vector2( 0, 0 )
1/modulate = Color( 1, 1, 1, 1 )
1/region = Rect2( 0, 0, 128, 128 )
1/tile_mode = 1
1/autotile/bitmask_mode = 0
1/autotile/bitmask_flags = [  ]
1/autotile/icon_coordinate = Vector2( 0, 0 )
1/autotile/tile_size = Vector2( 32, 32 )
1/autotile/spacing = 0
1/autotile/occluder_map = [  ]
1/autotile/navpoly_map = [  ]
1/autotile/priority_map = [  ]
1/autotile/z_index_map = [  ]
1/occluder_offset = Vector2( 0, 0 )
1/navigation_offset = Vector2( 0, 0 )
1/shape_offset = Vector2( 0, 0 )
1/shape_transform = Transform2D( 1, 0, 0, 1, 0, 0 )
1/shape_one_way = false
1/shape_one_way_margin = 0.0
1/shapes = [  ]
1/z_index = 0
2/name = "tes"
2/texture = ExtResource( 5 )
2/tex_offset = Vector2( 0, 0 )
2/modulate = Color( 1, 1, 1, 1 )
2/region = Rect2( 0, 0, 128, 128 )
2/tile_mode = 0
2/occluder_offset = Vector2( 0, 0 )
2/navigation_offset = Vector2( 0, 0 )
2/shape_offset = Vector2( 0, 0 )
2/shape_transform = Transform2D( 1, 0, 0, 1, 0, 0 )
2/shape_one_way = false
2/shape_one_way_margin = 0.0
2/shapes = [  ]
2/z_index = 0
3/name = "tes2"
3/texture = ExtResource( 4 )
3/tex_offset = Vector2( 0, 0 )
3/modulate = Color( 1, 1, 1, 1 )
3/region = Rect2( 32, 0, 32, 32 )
3/tile_mode = 1
3/autotile/bitmask_mode = 0
3/autotile/bitmask_flags = [  ]
3/autotile/icon_coordinate = Vector2( 0, 0 )
3/autotile/tile_size = Vector2( 32, 32 )
3/autotile/spacing = 0
3/autotile/occluder_map = [  ]
3/autotile/navpoly_map = [  ]
3/autotile/priority_map = [  ]
3/autotile/z_index_map = [  ]
3/occluder_offset = Vector2( 0, 0 )
3/navigation_offset = Vector2( 0, 0 )
3/shape_offset = Vector2( 0, 0 )
3/shape_transform = Transform2D( 1, 0, 0, 1, 0, 0 )
3/shape_one_way = false
3/shape_one_way_margin = 0.0
3/shapes = [  ]
3/z_index = 0
4/name = "tes3"
4/texture = ExtResource( 4 )
4/tex_offset = Vector2( 0, 0 )
4/modulate = Color( 1, 1, 1, 1 )
4/region = Rect2( 0, 0, 128, 128 )
4/tile_mode = 0
4/occluder_offset = Vector2( 0, 0 )
4/navigation_offset = Vector2( 0, 0 )
4/shape_offset = Vector2( 0, 0 )
4/shape_transform = Transform2D( 1, 0, 0, 1, 0, 0 )
4/shape_one_way = false
4/shape_one_way_margin = 0.0
4/shapes = [  ]
4/z_index = 0
5/name = "2.png 5"
5/texture = ExtResource( 4 )
5/tex_offset = Vector2( 0, 0 )
5/modulate = Color( 1, 1, 1, 1 )
5/region = Rect2( 64, 0, 32, 32 )
5/tile_mode = 1
5/autotile/bitmask_mode = 0
5/autotile/bitmask_flags = [  ]
5/autotile/icon_coordinate = Vector2( 0, 0 )
5/autotile/tile_size = Vector2( 32, 32 )
5/autotile/spacing = 0
5/autotile/occluder_map = [  ]
5/autotile/navpoly_map = [  ]
5/autotile/priority_map = [  ]
5/autotile/z_index_map = [  ]
5/occluder_offset = Vector2( 0, 0 )
5/navigation_offset = Vector2( 0, 0 )
5/shape_offset = Vector2( 0, 0 )
5/shape_transform = Transform2D( 1, 0, 0, 1, 0, 0 )
5/shape_one_way = false
5/shape_one_way_margin = 0.0
5/shapes = [  ]
5/z_index = 0
6/name = "2.png 6"
6/texture = ExtResource( 4 )
6/tex_offset = Vector2( 0, 0 )
6/modulate = Color( 1, 1, 1, 1 )
6/region = Rect2( 32, 32, 32, 32 )
6/tile_mode = 0
6/occluder_offset = Vector2( 0, 0 )
6/navigation_offset = Vector2( 0, 0 )
6/shape_offset = Vector2( 0, 0 )
6/shape_transform = Transform2D( 1, 0, 0, 1, 0, 0 )
6/shape_one_way = false
6/shape_one_way_margin = 0.0
6/shapes = [  ]
6/z_index = 0
7/name = "tes gege"
7/texture = ExtResource( 1 )
7/tex_offset = Vector2( 0, 0 )
7/modulate = Color( 1, 1, 1, 1 )
7/region = Rect2( 0, 0, 128, 128 )
7/tile_mode = 0
7/occluder_offset = Vector2( 0, 0 )
7/navigation_offset = Vector2( 0, 0 )
7/shape_offset = Vector2( 0, 0 )
7/shape_transform = Transform2D( 1, 0, 0, 1, 0, 0 )
7/shape_one_way = false
7/shape_one_way_margin = 0.0
7/shapes = [  ]
7/z_index = 0
8/name = "5.png 8"
8/texture = ExtResource( 2 )
8/tex_offset = Vector2( 0, 0 )
8/modulate = Color( 1, 1, 1, 1 )
8/region = Rect2( 0, 0, 128, 128 )
8/tile_mode = 0
8/occluder_offset = Vector2( 0, 0 )
8/navigation_offset = Vector2( 0, 0 )
8/shape_offset = Vector2( 0, 0 )
8/shape_transform = Transform2D( 1, 0, 0, 1, 0, 0 )
8/shape_one_way = false
8/shape_one_way_margin = 0.0
8/shapes = [  ]
8/z_index = 0
9/name = "6.png 9"
9/texture = ExtResource( 3 )
9/tex_offset = Vector2( 0, 0 )
9/modulate = Color( 1, 1, 1, 1 )
9/region = Rect2( 0, 0, 128, 128 )
9/tile_mode = 0
9/occluder_offset = Vector2( 0, 0 )
9/navigation_offset = Vector2( 0, 0 )
9/shape_offset = Vector2( 0, 0 )
9/shape_transform = Transform2D( 1, 0, 0, 1, 0, 0 )
9/shape_one_way = false
9/shape_one_way_margin = 0.0
9/shapes = [  ]
9/z_index = 0
10/name = "12.png 10"
10/texture = ExtResource( 7 )
10/tex_offset = Vector2( 0, 0 )
10/modulate = Color( 1, 1, 1, 1 )
10/region = Rect2( 0, 0, 128, 128 )
10/tile_mode = 0
10/occluder_offset = Vector2( 0, 0 )
10/navigation_offset = Vector2( 0, 0 )
10/shape_offset = Vector2( 0, 0 )
10/shape_transform = Transform2D( 1, 0, 0, 1, 0, 0 )
10/shape_one_way = false
10/shape_one_way_margin = 0.0
10/shapes = [  ]
10/z_index = 0
11/name = "13.png 11"
11/texture = ExtResource( 6 )
11/tex_offset = Vector2( 0, 0 )
11/modulate = Color( 1, 1, 1, 1 )
11/region = Rect2( 0, 0, 128, 128 )
11/tile_mode = 0
11/occluder_offset = Vector2( 0, 0 )
11/navigation_offset = Vector2( 0, 0 )
11/shape_offset = Vector2( 0, 0 )
11/shape_transform = Transform2D( 1, 0, 0, 1, 0, 0 )
11/shape_one_way = false
11/shape_one_way_margin = 0.0
11/shapes = [  ]
11/z_index = 0

[node name="Node2D" type="Node2D"]

[node name="TileMap" type="TileMap" parent="."]
tile_set = SubResource( 1 )
cell_size = Vector2( 128, 128 )
format = 1
tile_data = PoolIntArray( 0, 4, 0, 1, 4, 0, 65536, 8, 0, 65537, 8, 0, 131072, 8, 0, 131073, 8, 0, 196608, 8, 0, 196609, 8, 0, 262144, 8, 0, 262145, 8, 0, 327680, 8, 0, 327681, 8, 0, 393216, 7, 0, 393217, 7, 0 )
