[gd_scene load_steps=9 format=2]

[ext_resource path="res://Sprite/Ground/9.png" type="Texture" id=1]
[ext_resource path="res://Sprite/Ground/5.png" type="Texture" id=2]
[ext_resource path="res://Sprite/Ground/6.png" type="Texture" id=3]
[ext_resource path="res://Sprite/Ground/2.png" type="Texture" id=4]
[ext_resource path="res://Sprite/Ground/3.png" type="Texture" id=5]
[ext_resource path="res://Sprite/Ground/13.png" type="Texture" id=6]
[ext_resource path="res://Sprite/Ground/12.png" type="Texture" id=7]

[sub_resource type="TileSet" id=1]
0/name = "3.png 0"
0/texture = ExtResource( 5 )
0/tex_offset = Vector2( 0, 0 )
0/modulate = Color( 1, 1, 1, 1 )
0/region = Rect2( 32, 32, 64, 64 )
0/tile_mode = 1
0/autotile/bitmask_mode = 2
0/autotile/bitmask_flags = [  ]
0/autotile/icon_coordinate = Vector2( 0, 0 )
0/autotile/tile_size = Vector2( 32, 32 )
0/autotile/spacing = 0
0/autotile/occluder_map = [  ]
0/autotile/navpoly_map = [  ]
0/autotile/priority_map = [  ]
0/autotile/z_index_map = [  ]
0/occluder_offset = Vector2( 0, 0 )
0/navigation_offset = Vector2( 0, 0 )
0/shape_offset = Vector2( 0, 0 )
0/shape_transform = Transform2D( 1, 0, 0, 1, 0, 0 )
0/shape_one_way = false
0/shape_one_way_margin = 0.0
0/shapes = [  ]
0/z_index = 0
1/name = "3.png 1"
1/texture = ExtResource( 5 )
1/tex_offset = Vector2( 0, 0 )
1/modulate = Color( 1, 1, 1, 1 )
1/region = Rect2( 0, 0, 128, 128 )
1/tile_mode = 1
1/autotile/bitmask_mode = 0
1/autotile/bitmask_flags = [  ]
1/autotile/icon_coordinate = Vector2( 0, 0 )
1/autotile/tile_size = Vector2( 32, 32 )
1/autotile/spacing = 0
1/autotile/occluder_map = [  ]
1/autotile/navpoly_map = [  ]
1/autotile/priority_map = [  ]
1/autotile/z_index_map = [  ]
1/occluder_offset = Vector2( 0, 0 )
1/navigation_offset = Vector2( 0, 0 )
1/shape_offset = Vector2( 0, 0 )
1/shape_transform = Transform2D( 1, 0, 0, 1, 0, 0 )
1/shape_one_way = false
1/shape_one_way_margin = 0.0
1/shapes = [  ]
1/z_index = 0
2/name = "tes"
2/texture = ExtResource( 5 )
2/tex_offset = Vector2( 0, 0 )
2/modulate = Color( 1, 1, 1, 1 )
2/region = Rect2( 0, 0, 128, 128 )
2/tile_mode = 0
2/occluder_offset = Vector2( 0, 0 )
2/navigation_offset = Vector2( 0, 0 )
2/shape_offset = Vector2( 0, 0 )
2/shape_transform = Transform2D( 1, 0, 0, 1, 0, 0 )
2/shape_one_way = false
2/shape_one_way_margin = 0.0
2/shapes = [  ]
2/z_index = 0
3/name = "tes2"
3/texture = ExtResource( 4 )
3/tex_offset = Vector2( 0, 0 )
3/modulate = Color( 1, 1, 1, 1 )
3/region = Rect2( 32, 0, 32, 32 )
3/tile_mode = 1
3/autotile/bitmask_mode = 0
3/autotile/bitmask_flags = [  ]
3/autotile/icon_coordinate = Vector2( 0, 0 )
3/autotile/tile_size = Vector2( 32, 32 )
3/autotile/spacing = 0
3/autotile/occluder_map = [  ]
3/autotile/navpoly_map = [  ]
3/autotile/priority_map = [  ]
3/autotile/z_index_map = [  ]
3/occluder_offset = Vector2( 0, 0 )
3/navigation_offset = Vector2( 0, 0 )
3/shape_offset = Vector2( 0, 0 )
3/shape_transform = Transform2D( 1, 0, 0, 1, 0, 0 )
3/shape_one_way = false
3/shape_one_way_margin = 0.0
3/shapes = [  ]
3/z_index = 0
4/name = "tes3"
4/texture = ExtResource( 4 )
4/tex_offset = Vector2( 0, 0 )
4/modulate = Color( 1, 1, 1, 1 )
4/region = Rect2( 0, 0, 128, 128 )
4/tile_mode = 0
4/occluder_offset = Vector2( 0, 0 )
4/navigation_offset = Vector2( 0, 0 )
4/shape_offset = Vector2( 0, 0 )
4/shape_transform = Transform2D( 1, 0, 0, 1, 0, 0 )
4/shape_one_way = false
4/shape_one_way_margin = 0.0
4/shapes = [  ]
4/z_index = 0
5/name = "2.png 5"
5/texture = ExtResource( 4 )
5/tex_offset = Vector2( 0, 0 )
5/modulate = Color( 1, 1, 1, 1 )
5/region = Rect2( 64, 0, 32, 32 )
5/tile_mode = 1
5/autotile/bitmask_mode = 0
5/autotile/bitmask_flags = [  ]
5/autotile/icon_coordinate = Vector2( 0, 0 )
5/autotile/tile_size = Vector2( 32, 32 )
5/autotile/spacing = 0
5/autotile/occluder_map = [  ]
5/autotile/navpoly_map = [  ]
5/autotile/priority_map = [  ]
5/autotile/z_index_map = [  ]
5/occluder_offset = Vector2( 0, 0 )
5/navigation_offset = Vector2( 0, 0 )
5/shape_offset = Vector2( 0, 0 )
5/shape_transform = Transform2D( 1, 0, 0, 1, 0, 0 )
5/shape_one_way = false
5/shape_one_way_margin = 0.0
5/shapes = [  ]
5/z_index = 0
6/name = "2.png 6"
6/texture = ExtResource( 4 )
6/tex_offset = Vector2( 0, 0 )
6/modulate = Color( 1, 1, 1, 1 )
6/region = Rect2( 32, 32, 32, 32 )
6/tile_mode = 0
6/occluder_offset = Vector2( 0, 0 )
6/navigation_offset = Vector2( 0, 0 )
6/shape_offset = Vector2( 0, 0 )
6/shape_transform = Transform2D( 1, 0, 0, 1, 0, 0 )
6/shape_one_way = false
6/shape_one_way_margin = 0.0
6/shapes = [  ]
6/z_index = 0
7/name = "tes gege"
7/texture = ExtResource( 1 )
7/tex_offset = Vector2( 0, 0 )
7/modulate = Color( 1, 1, 1, 1 )
7/region = Rect2( 0, 0, 128, 128 )
7/tile_mode = 0
7/occluder_offset = Vector2( 0, 0 )
7/navigation_offset = Vector2( 0, 0 )
7/shape_offset = Vector2( 0, 0 )
7/shape_transform = Transform2D( 1, 0, 0, 1, 0, 0 )
7/shape_one_way = false
7/shape_one_way_margin = 0.0
7/shapes = [  ]
7/z_index = 0
8/name = "5.png 8"
8/texture = ExtResource( 2 )
8/tex_offset = Vector2( 0, 0 )
8/modulate = Color( 1, 1, 1, 1 )
8/region = Rect2( 0, 0, 128, 128 )
8/tile_mode = 0
8/occluder_offset = Vector2( 0, 0 )
8/navigation_offset = Vector2( 0, 0 )
8/shape_offset = Vector2( 0, 0 )
8/shape_transform = Transform2D( 1, 0, 0, 1, 0, 0 )
8/shape_one_way = false
8/shape_one_way_margin = 0.0
8/shapes = [  ]
8/z_index = 0
9/name = "6.png 9"
9/texture = ExtResource( 3 )
9/tex_offset = Vector2( 0, 0 )
9/modulate = Color( 1, 1, 1, 1 )
9/region = Rect2( 0, 0, 128, 128 )
9/tile_mode = 0
9/occluder_offset = Vector2( 0, 0 )
9/navigation_offset = Vector2( 0, 0 )
9/shape_offset = Vector2( 0, 0 )
9/shape_transform = Transform2D( 1, 0, 0, 1, 0, 0 )
9/shape_one_way = false
9/shape_one_way_margin = 0.0
9/shapes = [  ]
9/z_index = 0
10/name = "12.png 10"
10/texture = ExtResource( 7 )
10/tex_offset = Vector2( 0, 0 )
10/modulate = Color( 1, 1, 1, 1 )
10/region = Rect2( 0, 0, 128, 128 )
10/tile_mode = 0
10/occluder_offset = Vector2( 0, 0 )
10/navigation_offset = Vector2( 0, 0 )
10/shape_offset = Vector2( 0, 0 )
10/shape_transform = Transform2D( 1, 0, 0, 1, 0, 0 )
10/shape_one_way = false
10/shape_one_way_margin = 0.0
10/shapes = [  ]
10/z_index = 0
11/name = "13.png 11"
11/texture = ExtResource( 6 )
11/tex_offset = Vector2( 0, 0 )
11/modulate = Color( 1, 1, 1, 1 )
11/region = Rect2( 0, 0, 128, 128 )
11/tile_mode = 0
11/occluder_offset = Vector2( 0, 0 )
11/navigation_offset = Vector2( 0, 0 )
11/shape_offset = Vector2( 0, 0 )
11/shape_transform = Transform2D( 1, 0, 0, 1, 0, 0 )
11/shape_one_way = false
11/shape_one_way_margin = 0.0
11/shapes = [  ]
11/z_index = 0

[node name="Node2D" type="Node2D"]
position = Vector2( 0, 1.12561 )

[node name="TileMap" type="TileMap" parent="."]
tile_set = SubResource( 1 )
cell_size = Vector2( 128, 128 )
format = 1
tile_data = PoolIntArray( -262126, 536870914, 0, -262125, 2, 0, -196592, 536870914, 0, -196591, 536870916, 0, -196590, 536870916, 0, -196589, 536870916, 0, -196588, 536870916, 0, -196587, 2, 0, -131067, 536870914, 0, -131066, 2, 0, -131058, 536870914, 0, -131057, 536870916, 0, -131056, 536870916, 0, -131055, 536870916, 0, -131054, 536870916, 0, -131053, 536870916, 0, -131052, 536870916, 0, -131051, 536870916, 0, -131050, 536870916, 0, -131049, 2, 0, -65533, 536870914, 0, -65532, 4, 0, -65531, 4, 0, -65530, 4, 0, -65529, 4, 0, -65528, 2, 0, -65524, 536870914, 0, -65523, 536870916, 0, -65522, 536870916, 0, -65521, 536870916, 0, -65520, 536870916, 0, -65519, 536870916, 0, -65518, 536870916, 0, -65517, 536870916, 0, -65516, 536870916, 0, -65515, 536870916, 0, -65514, 536870916, 0, -65513, 536870916, 0, -65512, 536870916, 0, -65511, 2, 0, 0, 536870914, 0, 1, 4, 0, 2, 4, 0, 3, 4, 0, 4, 4, 0, 5, 4, 0, 6, 4, 0, 7, 4, 0, 8, 4, 0, 9, 4, 0, 10, 4, 0, 11, 4, 0, 12, 4, 0, 13, 4, 0, 14, 4, 0, 15, 4, 0, 16, 4, 0, 17, 4, 0, 18, 4, 0, 19, 4, 0, 20, 4, 0, 21, 4, 0, 22, 4, 0, 23, 4, 0, 24, 4, 0, 25, 4, 0, 26, 4, 0, 27, 2, 0, 65536, 1610612745, 0, 65537, 8, 0, 65538, 8, 0, 65539, 8, 0, 65540, 8, 0, 65541, 8, 0, 65542, 8, 0, 65543, 8, 0, 65544, 8, 0, 65545, 8, 0, 65546, 8, 0, 65547, 8, 0, 65548, 8, 0, 65549, 8, 0, 65550, 8, 0, 65551, 8, 0, 65552, 8, 0, 65553, 8, 0, 65554, 8, 0, 65555, 8, 0, 65556, 8, 0, 65557, 8, 0, 65558, 8, 0, 65559, 8, 0, 65560, 8, 0, 65561, 8, 0, 65562, 8, 0, 65563, 9, 0, 131072, 1610612745, 0, 131073, 8, 0, 131074, 8, 0, 131075, 8, 0, 131076, 8, 0, 131077, 8, 0, 131078, 8, 0, 131079, 8, 0, 131080, 8, 0, 131081, 8, 0, 131082, 8, 0, 131083, 8, 0, 131084, 8, 0, 131085, 8, 0, 131086, 8, 0, 131087, 8, 0, 131088, 8, 0, 131089, 8, 0, 131090, 8, 0, 131091, 8, 0, 131092, 8, 0, 131093, 8, 0, 131094, 8, 0, 131095, 8, 0, 131096, 8, 0, 131097, 8, 0, 131098, 8, 0, 131099, 9, 0, 196608, 1610612745, 0, 196609, 8, 0, 196610, 8, 0, 196611, 8, 0, 196612, 8, 0, 196613, 8, 0, 196614, 8, 0, 196615, 8, 0, 196616, 8, 0, 196617, 8, 0, 196618, 8, 0, 196619, 8, 0, 196620, 8, 0, 196621, 8, 0, 196622, 8, 0, 196623, 8, 0, 196624, 8, 0, 196625, 8, 0, 196626, 8, 0, 196627, 8, 0, 196628, 8, 0, 196629, 8, 0, 196630, 8, 0, 196631, 8, 0, 196632, 8, 0, 196633, 8, 0, 196634, 8, 0, 196635, 9, 0, 262144, 1610612745, 0, 262145, 8, 0, 262146, 8, 0, 262147, 8, 0, 262148, 8, 0, 262149, 8, 0, 262150, 8, 0, 262151, 8, 0, 262152, 8, 0, 262153, 8, 0, 262154, 8, 0, 262155, 8, 0, 262156, 8, 0, 262157, 8, 0, 262158, 8, 0, 262159, 8, 0, 262160, 8, 0, 262161, 8, 0, 262162, 8, 0, 262163, 8, 0, 262164, 8, 0, 262165, 8, 0, 262166, 8, 0, 262167, 8, 0, 262168, 8, 0, 262169, 8, 0, 262170, 8, 0, 262171, 9, 0, 327680, 1610612745, 0, 327681, 8, 0, 327682, 8, 0, 327683, 8, 0, 327684, 8, 0, 327685, 8, 0, 327686, 8, 0, 327687, 8, 0, 327688, 8, 0, 327689, 8, 0, 327690, 8, 0, 327691, 8, 0, 327692, 8, 0, 327693, 8, 0, 327694, 8, 0, 327695, 8, 0, 327696, 8, 0, 327697, 8, 0, 327698, 8, 0, 327699, 8, 0, 327700, 8, 0, 327701, 8, 0, 327702, 8, 0, 327703, 8, 0, 327704, 8, 0, 327705, 8, 0, 327706, 8, 0, 327707, 9, 0, 393216, 10, 0, 393217, 7, 0, 393218, 7, 0, 393219, 7, 0, 393220, 7, 0, 393221, 7, 0, 393222, 7, 0, 393223, 7, 0, 393224, 7, 0, 393225, 7, 0, 393226, 7, 0, 393227, 7, 0, 393228, 7, 0, 393229, 7, 0, 393230, 7, 0, 393231, 7, 0, 393232, 7, 0, 393233, 7, 0, 393234, 7, 0, 393235, 7, 0, 393236, 7, 0, 393237, 7, 0, 393238, 7, 0, 393239, 8, 0, 393240, 8, 0, 393241, 8, 0, 393242, 8, 0, 393243, 11, 0 )
