[gd_scene load_steps=8 format=2]

[ext_resource path="res://Scenes/Attrib/Speed.tscn" type="PackedScene" id=1]
[ext_resource path="res://Scenes/Player.tscn" type="PackedScene" id=2]
[ext_resource path="res://Scenes/SpawnGround.tscn" type="PackedScene" id=3]
[ext_resource path="res://Scenes/Background.tscn" type="PackedScene" id=4]
[ext_resource path="res://Scenes/Attrib/Score.tscn" type="PackedScene" id=5]
[ext_resource path="res://Scripts/Main.gd" type="Script" id=6]
[ext_resource path="res://Scenes/Attrib/PressEnterToStart.tscn" type="PackedScene" id=7]

[node name="Main" type="Node2D"]
position = Vector2( 204.814, 367.232 )
script = ExtResource( 6 )

[node name="Background" parent="." instance=ExtResource( 4 )]

[node name="Label" parent="." instance=ExtResource( 7 )]
margin_right = 635.983
margin_bottom = -366.622

[node name="Player" parent="." instance=ExtResource( 2 )]
position = Vector2( -261.349, -1149.66 )

[node name="SpawnGround" parent="." instance=ExtResource( 3 )]
position = Vector2( 1.87231, 0 )

[node name="Front" type="ParallaxBackground" parent="."]
layer = 128

[node name="UI" parent="Front" instance=ExtResource( 1 )]

[node name="UI2" parent="Front" instance=ExtResource( 5 )]
