[gd_resource type="DynamicFont" load_steps=2 format=2]

[ext_resource path="res://Assets/Fonts/bangers-regular.ttf" type="DynamicFontData" id=1]

[resource]
size = 35
outline_color = Color( 0.682353, 0.682353, 0.682353, 1 )
font_data = ExtResource( 1 )
