[gd_scene load_steps=3 format=2]

[ext_resource path="res://Assets/Fonts/bangers-regular-20.tres" type="DynamicFont" id=1]

[sub_resource type="StyleBoxFlat" id=1]
bg_color = Color( 0.756863, 0.784314, 0.803922, 0.568627 )
corner_radius_top_left = 20
corner_radius_top_right = 20
corner_radius_bottom_right = 20
corner_radius_bottom_left = 20
corner_detail = 10

[node name="ScoreItem" type="Panel"]
anchor_left = -0.000548303
anchor_top = -0.00167124
anchor_right = -0.000548065
anchor_bottom = -0.00167124
margin_left = -0.438781
margin_top = -1.0
margin_right = 770.561
margin_bottom = 52.0
grow_horizontal = 0
grow_vertical = 0
rect_min_size = Vector2( 771, 39 )
custom_styles/panel = SubResource( 1 )
__meta__ = {
"_edit_use_anchors_": false
}

[node name="PlayerName" type="RichTextLabel" parent="."]
anchor_left = -0.00071767
anchor_right = -0.000717592
margin_left = 41.5533
margin_top = 10.0
margin_right = 451.553
margin_bottom = 45.0
custom_fonts/normal_font = ExtResource( 1 )
text = "1. Godzilla"
__meta__ = {
"_edit_use_anchors_": false
}

[node name="Score" type="Label" parent="."]
anchor_left = 0.001297
anchor_top = -0.012049
anchor_right = 0.001297
anchor_bottom = -0.012049
margin_left = 437.0
margin_top = 11.6386
margin_right = 756.0
margin_bottom = 34.6386
rect_pivot_offset = Vector2( -8.4895, 151.371 )
custom_fonts/font = ExtResource( 1 )
text = "13"
align = 2
valign = 1
__meta__ = {
"_edit_use_anchors_": false
}
