[gd_resource type="StyleBoxFlat" format=2]

[resource]
bg_color = Color( 0.913725, 0.666667, 0.270588, 1 )
corner_radius_top_left = 20
corner_radius_top_right = 20
corner_radius_bottom_right = 20
corner_radius_bottom_left = 20
