[gd_scene load_steps=5 format=2]

[ext_resource path="res://Scenes/Grounds/TileMap/ShortLand.tscn" type="PackedScene" id=1]
[ext_resource path="res://Scripts/Ground.gd" type="Script" id=2]

[sub_resource type="RectangleShape2D" id=1]
extents = Vector2( 634.519, 56.3525 )

[sub_resource type="RectangleShape2D" id=2]
extents = Vector2( 347.385, 56.3525 )

[node name="Ground" type="StaticBody2D"]
script = ExtResource( 2 )

[node name="LandCollision" type="CollisionShape2D" parent="."]
position = Vector2( 643, 57.392 )
z_index = 6
shape = SubResource( 1 )

[node name="LandCollision2" type="CollisionShape2D" parent="."]
position = Vector2( 65.0803, 460.079 )
rotation = 1.5708
z_index = 6
shape = SubResource( 2 )

[node name="Node2D" parent="." instance=ExtResource( 1 )]
