[gd_scene load_steps=3 format=2]

[ext_resource path="res://Assets/Fonts/bangers-regular.tres" type="DynamicFont" id=1]
[ext_resource path="res://Scripts/ScoreTime.gd" type="Script" id=2]

[node name="UI" type="Control"]
margin_left = 664.0
margin_top = 24.0
margin_right = 664.0
margin_bottom = 24.0
__meta__ = {
"_edit_use_anchors_": false
}

[node name="Score" type="Label" parent="."]
anchor_top = -0.0238037
anchor_right = 2.4
anchor_bottom = -0.0238037
margin_left = -1.75354
margin_top = 0.7724
margin_right = 325.247
margin_bottom = 128.772
custom_fonts/font = ExtResource( 1 )
text = "00:22:13"
align = 2
script = ExtResource( 2 )
__meta__ = {
"_edit_use_anchors_": false
}
